0000000000000000000000000000001000000000000000000000000000000
0000000000000000000000000000010100000000000000000000000000000
0000000000000000000000000000100010000000000000000000000000000
0000000000000000000000000001010101000000000000000000000000000
0000000000000000000000000010000000100000000000000000000000000
0000000000000000000000000101000001010000000000000000000000000
0000000000000000000000001000100010001000000000000000000000000
0000000000000000000000010101010101010100000000000000000000000
0000000000000000000000100000000000000010000000000000000000000
0000000000000000000001010000000000000101000000000000000000000
0000000000000000000010001000000000001000100000000000000000000
0000000000000000000101010100000000010101010000000000000000000
0000000000000000001000000010000000100000001000000000000000000
0000000000000000010100000101000001010000010100000000000000000
0000000000000000100010001000100010001000100010000000000000000
0000000000000001010101010101010101010101010101000000000000000
0000000000000010000000000000000000000000000000100000000000000
0000000000000101000000000000000000000000000001010000000000000
0000000000001000100000000000000000000000000010001000000000000
0000000000010101010000000000000000000000000101010100000000000
0000000000100000001000000000000000000000001000000010000000000
0000000001010000010100000000000000000000010100000101000000000
0000000010001000100010000000000000000000100010001000100000000
0000000101010101010101000000000000000001010101010101010000000
0000001000000000000000100000000000000010000000000000001000000
0000010100000000000001010000000000000101000000000000010100000
0000100010000000000010001000000000001000100000000000100010000
0001010101000000000101010100000000010101010000000001010101000
0010000000100000001000000010000000100000001000000010000000100
0101000001010000010100000101000001010000010100000101000001010
1000100010001000100010001000100010001000100010001000100010001
1101010101010101010101010101010101010101010101010101010101011
0100000000000000000000000000000000000000000000000000000000010
1010000000000000000000000000000000000000000000000000000000101
1001000000000000000000000000000000000000000000000000000001001
1110100000000000000000000000000000000000000000000000000010111
0010010000000000000000000000000000000000000000000000000100100
0101101000000000000000000000000000000000000000000000001011010
1001100100000000000000000000000000000000000000000000010011001
1111111010000000000000000000000000000000000000000000101111111
0000001001000000000000000000000000000000000000000001001000000
0000010110100000000000000000000000000000000000000010110100000
0000100110010000000000000000000000000000000000000100110010000
0001011111101000000000000000000000000000000000001011111101000
0010010000100100000000000000000000000000000000010010000100100
0101101001011010000000000000000000000000000000101101001011010
1001100110011001000000000000000000000000000001001100110011001
1111111111111110100000000000000000000000000010111111111111111
0000000000000010010000000000000000000000000100100000000000000
0000000000000101101000000000000000000000001011010000000000000
0000000000001001100100000000000000000000010011001000000000000
0000000000010111111010000000000000000000101111110100000000000
0000000000100100001001000000000000000001001000010010000000000
0000000001011010010110100000000000000010110100101101000000000
0000000010011001100110010000000000000100110011001100100000000
0000000101111111111111101000000000001011111111111111010000000
0000001001000000000000100100000000010010000000000001001000000
0000010110100000000001011010000000101101000000000010110100000
0000100110010000000010011001000001001100100000000100110010000
0001011111101000000101111110100010111111010000001011111101000
0010010000100100001001000010010100100001001000010010000100100
0101101001011010010110100101100011010010110100101101001011010
1001100110011001100110011001110111001100110011001100110011001
1111111111111111111111111111010101111111111111111111111111111
0000000000000000000000000001000001000000000000000000000000000
0000000000000000000000000010100010100000000000000000000000000
0000000000000000000000000100010100010000000000000000000000000
0000000000000000000000001010100010101000000000000000000000000
0000000000000000000000010000010100000100000000000000000000000
0000000000000000000000101000100010001010000000000000000000000
0000000000000000000001000101010101010001000000000000000000000
0000000000000000000010101000000000001010100000000000000000000
0000000000000000000100000100000000010000010000000000000000000
0000000000000000001010001010000000101000101000000000000000000
0000000000000000010001010001000001000101000100000000000000000
0000000000000000101010001010100010101000101010000000000000000
0000000000000001000001010000010100000101000001000000000000000
0000000000000010100010001000100010001000100010100000000000000
0000000000000100010101010101010101010101010100010000000000000
0000000000001010100000000000000000000000000010101000000000000
0000000000010000010000000000000000000000000100000100000000000
0000000000101000101000000000000000000000001010001010000000000
0000000001000101000100000000000000000000010001010001000000000
0000000010101000101010000000000000000000101010001010100000000
0000000100000101000001000000000000000001000001010000010000000
0000001010001000100010100000000000000010100010001000101000000
0000010001010101010100010000000000000100010101010101000100000
0000101010000000000010101000000000001010100000000000101010000
0001000001000000000100000100000000010000010000000001000001000
0010100010100000001010001010000000101000101000000010100010100
0100010100010000010001010001000001000101000100000100010100010
1010100010101000101010001010100010101000101010001010100010101
1000010100000101000001010000010100000101000001010000010100001
1100100010001000100010001000100010001000100010001000100010011
0111010101010101010101010101010101010101010101010101010101110
1101000000000000000000000000000000000000000000000000000001011
0100100000000000000000000000000000000000000000000000000010010
1011010000000000000000000000000000000000000000000000000101101
1011001000000000000000000000000000000000000000000000001001101
1011110100000000000000000000000000000000000000000000010111101
